{
  "images" : [
    {
      "idiom" : "universal",
      "scale" : "1x",
      "filename" : "check_000000_50 (2).png"
    },
    {
      "idiom" : "universal",
      "scale" : "2x",
      "filename" : "check_000000_100.png"
    },
    {
      "idiom" : "universal",
      "scale" : "3x",
      "filename" : "check_000000_150.png"
    }
  ],
  "info" : {
    "version" : 1,
    "author" : "xcode"
  }
}