{
  "images" : [
    {
      "idiom" : "universal",
      "scale" : "1x",
      "filename" : "cog_000000_25.png"
    },
    {
      "idiom" : "universal",
      "scale" : "2x",
      "filename" : "cog_000000_50.png"
    },
    {
      "idiom" : "universal",
      "scale" : "3x",
      "filename" : "cog_000000_75.png"
    }
  ],
  "info" : {
    "version" : 1,
    "author" : "xcode"
  }
}